Lab4/am.vcd
$date
	Sun Feb 16 19:29:25 2020
$end
$version
	Icarus Verilog
$end
$timescale
	1s
$end
$scope module arith_machine_test $end
$var wire 1 ! except $end
$var reg 1 " clock $end
$var reg 1 # done $end
$var reg 1 $ reset $end
$var integer 32 % i [31:0] $end
$scope module am $end
$var wire 1 " clock $end
$var wire 1 $ reset $end
$var wire 32 & zeroimm32 [31:0] $end
$var wire 1 ' zero $end
$var wire 1 ( writeenable $end
$var wire 5 ) w_addr [4:0] $end
$var wire 32 * signimm32 [31:0] $end
$var wire 32 + rt [31:0] $end
$var wire 32 , rs [31:0] $end
$var wire 1 - rd_src $end
$var wire 1 . overflow $end
$var wire 32 / out [31:0] $end
$var wire 32 0 nextPC [31:0] $end
$var wire 1 1 negative $end
$var wire 32 2 inst [31:0] $end
$var wire 1 ! except $end
$var wire 2 3 alu_src2 [1:0] $end
$var wire 3 4 alu_op [2:0] $end
$var wire 32 5 PC [31:0] $end
$var wire 32 6 B_input [31:0] $end
$scope module Binput $end
$var wire 32 7 wAB [31:0] $end
$var wire 2 8 sel [1:0] $end
$var wire 32 9 out [31:0] $end
$var wire 32 : C [31:0] $end
$var wire 32 ; B [31:0] $end
$var wire 32 < A [31:0] $end
$scope module mAB $end
$var wire 32 = out [31:0] $end
$var wire 1 > sel $end
$var wire 32 ? temp1 [31:0] $end
$var wire 32 @ temp2 [31:0] $end
$var wire 32 A B [31:0] $end
$var wire 32 B A [31:0] $end
$upscope $end
$scope module mfinal $end
$var wire 32 C A [31:0] $end
$var wire 32 D out [31:0] $end
$var wire 1 E sel $end
$var wire 32 F temp1 [31:0] $end
$var wire 32 G temp2 [31:0] $end
$var wire 32 H B [31:0] $end
$upscope $end
$upscope $end
$scope module PC_reg $end
$var wire 1 " clock $end
$var wire 1 I enable $end
$var wire 1 $ reset $end
$var wire 32 J d [31:0] $end
$var reg 32 K q [31:0] $end
$upscope $end
$scope module decode_ $end
$var wire 1 L add_ $end
$var wire 1 M addu_ $end
$var wire 1 N and_ $end
$var wire 1 ! except $end
$var wire 6 O funct [5:0] $end
$var wire 1 P nor_ $end
$var wire 6 Q opcode [5:0] $end
$var wire 1 R or_ $end
$var wire 1 - rd_src $end
$var wire 1 S sub_ $end
$var wire 1 ( writeenable $end
$var wire 1 T xor_ $end
$var wire 1 U xori_ $end
$var wire 1 V ori_ $end
$var wire 1 W andi_ $end
$var wire 2 X alu_src2 [1:0] $end
$var wire 3 Y alu_op [2:0] $end
$var wire 1 Z addiu_ $end
$var wire 1 [ addi_ $end
$upscope $end
$scope module im $end
$var wire 30 \ addr [29:0] $end
$var wire 32 ] data [31:0] $end
$var reg 32 ^ i [31:0] $end
$upscope $end
$scope module out_ $end
$var wire 3 _ control [2:0] $end
$var wire 32 ` inB [31:0] $end
$var wire 1 1 negative $end
$var wire 32 a out [31:0] $end
$var wire 1 . overflow $end
$var wire 1 ' zero $end
$var wire 32 b inA [31:0] $end
$upscope $end
$scope module pcplus4 $end
$var wire 3 c control [2:0] $end
$var wire 32 d inA [31:0] $end
$var wire 32 e inB [31:0] $end
$var wire 1 f negative $end
$var wire 32 g out [31:0] $end
$var wire 1 h overflow $end
$var wire 1 i zero $end
$upscope $end
$scope module rdchoice $end
$var wire 5 j A [4:0] $end
$var wire 5 k B [4:0] $end
$var wire 5 l out [4:0] $end
$var wire 1 - sel $end
$var wire 5 m temp1 [4:0] $end
$var wire 5 n temp2 [4:0] $end
$upscope $end
$scope module rf $end
$var wire 1 " clock $end
$var wire 32 o rdData [31:0] $end
$var wire 5 p rdNum [4:0] $end
$var wire 1 ( rdWriteEnable $end
$var wire 1 $ reset $end
$var wire 32 q rsData [31:0] $end
$var wire 5 r rsNum [4:0] $end
$var wire 32 s rtData [31:0] $end
$var wire 5 t rtNum [4:0] $end
$var integer 32 u i [31:0] $end
$upscope $end
$scope module signextend $end
$var wire 16 v in [15:0] $end
$var wire 32 w out [31:0] $end
$upscope $end
$scope module zeroextend $end
$var wire 16 x in [15:0] $end
$var wire 32 y out [31:0] $end
$upscope $end
$upscope $end
$upscope $end
$scope module arith_machine_test $end
$scope module am $end
$scope module rf $end
$var reg 32 z \r[0] [31:0] $end
$upscope $end
$upscope $end
$upscope $end
$scope module arith_machine_test $end
$scope module am $end
$scope module rf $end
$var reg 32 { \r[1] [31:0] $end
$upscope $end
$upscope $end
$upscope $end
$scope module arith_machine_test $end
$scope module am $end
$scope module rf $end
$var reg 32 | \r[2] [31:0] $end
$upscope $end
$upscope $end
$upscope $end
$scope module arith_machine_test $end
$scope module am $end
$scope module rf $end
$var reg 32 } \r[3] [31:0] $end
$upscope $end
$upscope $end
$upscope $end
$scope module arith_machine_test $end
$scope module am $end
$scope module rf $end
$var reg 32 ~ \r[4] [31:0] $end
$upscope $end
$upscope $end
$upscope $end
$scope module arith_machine_test $end
$scope module am $end
$scope module rf $end
$var reg 32 !" \r[5] [31:0] $end
$upscope $end
$upscope $end
$upscope $end
$scope module arith_machine_test $end
$scope module am $end
$scope module rf $end
$var reg 32 "" \r[6] [31:0] $end
$upscope $end
$upscope $end
$upscope $end
$scope module arith_machine_test $end
$scope module am $end
$scope module rf $end
$var reg 32 #" \r[7] [31:0] $end
$upscope $end
$upscope $end
$upscope $end
$scope module arith_machine_test $end
$scope module am $end
$scope module rf $end
$var reg 32 $" \r[8] [31:0] $end
$upscope $end
$upscope $end
$upscope $end
$scope module arith_machine_test $end
$scope module am $end
$scope module rf $end
$var reg 32 %" \r[9] [31:0] $end
$upscope $end
$upscope $end
$upscope $end
$scope module arith_machine_test $end
$scope module am $end
$scope module rf $end
$var reg 32 &" \r[10] [31:0] $end
$upscope $end
$upscope $end
$upscope $end
$scope module arith_machine_test $end
$scope module am $end
$scope module rf $end
$var reg 32 '" \r[11] [31:0] $end
$upscope $end
$upscope $end
$upscope $end
$scope module arith_machine_test $end
$scope module am $end
$scope module rf $end
$var reg 32 (" \r[12] [31:0] $end
$upscope $end
$upscope $end
$upscope $end
$scope module arith_machine_test $end
$scope module am $end
$scope module rf $end
$var reg 32 )" \r[13] [31:0] $end
$upscope $end
$upscope $end
$upscope $end
$scope module arith_machine_test $end
$scope module am $end
$scope module rf $end
$var reg 32 *" \r[14] [31:0] $end
$upscope $end
$upscope $end
$upscope $end
$scope module arith_machine_test $end
$scope module am $end
$scope module rf $end
$var reg 32 +" \r[15] [31:0] $end
$upscope $end
$upscope $end
$upscope $end
$scope module arith_machine_test $end
$scope module am $end
$scope module rf $end
$var reg 32 ," \r[16] [31:0] $end
$upscope $end
$upscope $end
$upscope $end
$scope module arith_machine_test $end
$scope module am $end
$scope module rf $end
$var reg 32 -" \r[17] [31:0] $end
$upscope $end
$upscope $end
$upscope $end
$scope module arith_machine_test $end
$scope module am $end
$scope module rf $end
$var reg 32 ." \r[18] [31:0] $end
$upscope $end
$upscope $end
$upscope $end
$scope module arith_machine_test $end
$scope module am $end
$scope module rf $end
$var reg 32 /" \r[19] [31:0] $end
$upscope $end
$upscope $end
$upscope $end
$scope module arith_machine_test $end
$scope module am $end
$scope module rf $end
$var reg 32 0" \r[20] [31:0] $end
$upscope $end
$upscope $end
$upscope $end
$scope module arith_machine_test $end
$scope module am $end
$scope module rf $end
$var reg 32 1" \r[21] [31:0] $end
$upscope $end
$upscope $end
$upscope $end
$scope module arith_machine_test $end
$scope module am $end
$scope module rf $end
$var reg 32 2" \r[22] [31:0] $end
$upscope $end
$upscope $end
$upscope $end
$scope module arith_machine_test $end
$scope module am $end
$scope module rf $end
$var reg 32 3" \r[23] [31:0] $end
$upscope $end
$upscope $end
$upscope $end
$scope module arith_machine_test $end
$scope module am $end
$scope module rf $end
$var reg 32 4" \r[24] [31:0] $end
$upscope $end
$upscope $end
$upscope $end
$scope module arith_machine_test $end
$scope module am $end
$scope module rf $end
$var reg 32 5" \r[25] [31:0] $end
$upscope $end
$upscope $end
$upscope $end
$scope module arith_machine_test $end
$scope module am $end
$scope module rf $end
$var reg 32 6" \r[26] [31:0] $end
$upscope $end
$upscope $end
$upscope $end
$scope module arith_machine_test $end
$scope module am $end
$scope module rf $end
$var reg 32 7" \r[27] [31:0] $end
$upscope $end
$upscope $end
$upscope $end
$scope module arith_machine_test $end
$scope module am $end
$scope module rf $end
$var reg 32 8" \r[28] [31:0] $end
$upscope $end
$upscope $end
$upscope $end
$scope module arith_machine_test $end
$scope module am $end
$scope module rf $end
$var reg 32 9" \r[29] [31:0] $end
$upscope $end
$upscope $end
$upscope $end
$scope module arith_machine_test $end
$scope module am $end
$scope module rf $end
$var reg 32 :" \r[30] [31:0] $end
$upscope $end
$upscope $end
$upscope $end
$scope module arith_machine_test $end
$scope module am $end
$scope module rf $end
$var reg 32 ;" \r[31] [31:0] $end
$upscope $end
$upscope $end
$upscope $end
$enddefinitions $end
#0
$dumpvars
b0 ;"
b0 :"
b0 9"
b0 8"
b0 7"
b0 6"
b0 5"
b0 4"
b0 3"
b0 2"
b0 1"
b0 0"
b0 /"
b0 ."
b0 -"
b0 ,"
b0 +"
b0 *"
b0 )"
b0 ("
b0 '"
b0 &"
b0 %"
b0 $"
b0 #"
b0 ""
b0 !"
b0 ~
b0 }
b0 |
b0 {
b0 z
b1100100 y
b1100100 x
b1100100 w
b1100100 v
b100000 u
b110 t
b0 s
b0 r
b0 q
b110 p
b1100100 o
b110 n
b0 m
b110 l
b110 k
b0 j
0i
0h
b100 g
0f
b100 e
b0 d
b10 c
b0 b
b1100100 a
b1100100 `
b10 _
b100000000 ^
b100000000001100000000001100100 ]
b0 \
1[
0Z
b10 Y
b1 X
0W
0V
0U
0T
0S
0R
b1000 Q
0P
b100100 O
0N
0M
0L
b0 K
b100 J
1I
b1100100 H
b0 G
b1100100 F
0E
b1100100 D
b1100100 C
b0 B
b1100100 A
b1100100 @
b0 ?
1>
b1100100 =
b0 <
b1100100 ;
b1100100 :
b1100100 9
b1 8
b1100100 7
b1100100 6
b0 5
b10 4
b1 3
b100000000001100000000001100100 2
01
b100 0
b1100100 /
0.
1-
b0 ,
b0 +
b1100100 *
b110 )
1(
0'
b1100100 &
b100000 %
1$
0#
0"
0!
$end
#3
0$
#5
b10011011 6
b10011011 9
b10011011 D
b10011011 `
b11111111 /
b11111111 a
b11111111 o
b10011011 F
b10011011 7
b10011011 =
b10011011 C
b111 )
b111 l
b111 p
b1000 0
b1000 J
b1000 g
b10011011 @
b111 n
b10011011 &
b10011011 :
b10011011 H
b10011011 y
b10011011 x
b10011011 *
b10011011 ;
b10011011 A
b10011011 w
b10011011 v
b11011 O
b111 k
b111 t
b1100100 ,
b1100100 b
b1100100 q
b110 r
b100000110001110000000010011011 2
b100000110001110000000010011011 ]
b1 \
b100 5
b100 K
b100 d
b1100100 ""
b0 +
b0 <
b0 B
b0 s
1"
#10
0"
#15
0'
0!
1(
b11001000 /
b11001000 a
b11001000 o
b1000 m
b1100100 6
b1100100 9
b1100100 D
b1100100 `
0-
b1100100 F
b10 4
b10 Y
b10 _
b1100100 ?
b1100100 7
b1100100 =
b1100100 C
0>
b1000 )
b1000 l
b1000 p
b1100 0
b1100 J
b1100 g
b0 @
1L
b0 3
b0 8
b0 X
b0 n
b100000000100000 &
b100000000100000 :
b100000000100000 H
b100000000100000 y
b100000000100000 x
b100000000100000 *
b100000000100000 ;
b100000000100000 A
b100000000100000 w
b100000000100000 v
b100000 O
0[
b0 Q
b110 k
b1000 j
b110 t
b110001100100000000100000 2
b110001100100000000100000 ]
b10 \
b11111111 #"
b1100100 +
b1100100 <
b1100100 B
b1100100 s
b1000 5
b1000 K
b1000 d
1"
#20
0"
#25
b11 4
b11 Y
b11 _
b11001000 6
b11001000 9
b11001000 D
b11001000 `
b110111 /
b110111 a
b110111 o
b11001000 F
b1001 )
b1001 l
b1001 p
b11001000 7
b11001000 =
b11001000 C
b10000 0
b10000 J
b10000 g
0L
1S
b1001 m
b11001000 ?
b100100000100010 &
b100100000100010 :
b100100000100010 H
b100100000100010 y
b100100000100010 x
b100100000100010 *
b100100000100010 ;
b100100000100010 A
b100100000100010 w
b100100000100010 v
b100010 O
b1000 k
b1001 j
b11001000 +
b11001000 <
b11001000 B
b11001000 s
b1000 t
b11111111 ,
b11111111 b
b11111111 q
b111 r
b111010000100100000100010 2
b111010000100100000100010 ]
b11 \
b1100 5
b1100 K
b1100 d
b11001000 $"
1"
#30
0"
#35
11
0'
b11111111 6
b11111111 9
b11111111 D
b11111111 `
b11111111 F
b1010 )
b1010 l
b1010 p
b11111111 7
b11111111 =
b11111111 C
b11111111111111111111111111001001 /
b11111111111111111111111111001001 a
b11111111111111111111111111001001 o
b10100 0
b10100 J
b10100 g
b1010 m
b11111111 ?
b101000000100010 &
b101000000100010 :
b101000000100010 H
b101000000100010 y
b101000000100010 x
b101000000100010 *
b101000000100010 ;
b101000000100010 A
b101000000100010 w
b101000000100010 v
b111 k
b1010 j
b11111111 +
b11111111 <
b11111111 B
b11111111 s
b111 t
b11001000 ,
b11001000 b
b11001000 q
b1000 r
b1000001110101000000100010 2
b1000001110101000000100010 ]
b100 \
b110111 %"
b10000 5
b10000 K
b10000 d
1"
#40
0"
#45
0!
0'
1(
01
b100101100 /
b100101100 a
b100101100 o
b10 4
b10 Y
b10 _
b1100100 6
b1100100 9
b1100100 D
b1100100 `
b1100100 F
b1011 )
b1011 l
b1011 p
b1100100 7
b1100100 =
b1100100 C
b11000 0
b11000 J
b11000 g
1L
0S
b1011 m
b1100100 ?
b101100000100000 &
b101100000100000 :
b101100000100000 H
b101100000100000 y
b101100000100000 x
b101100000100000 *
b101100000100000 ;
b101100000100000 A
b101100000100000 w
b101100000100000 v
b100000 O
b110 k
b1011 j
b1100100 +
b1100100 <
b1100100 B
b1100100 s
b110 t
b1000001100101100000100000 2
b1000001100101100000100000 ]
b101 \
b10100 5
b10100 K
b10100 d
b11111111111111111111111111001001 &"
1"
#50
0"
#55
0'
b100 4
b100 Y
b100 _
b11111111 6
b11111111 9
b11111111 D
b11111111 `
b101100 /
b101100 a
b101100 o
b11111111 F
b1100 )
b1100 l
b1100 p
b11111111 7
b11111111 =
b11111111 C
b11100 0
b11100 J
b11100 g
0L
1N
b1100 m
b11111111 ?
b110000000100100 &
b110000000100100 :
b110000000100100 H
b110000000100100 y
b110000000100100 x
b110000000100100 *
b110000000100100 ;
b110000000100100 A
b110000000100100 w
b110000000100100 v
b100100 O
b111 k
b1100 j
b11111111 +
b11111111 <
b11111111 B
b11111111 s
b111 t
b100101100 ,
b100101100 b
b100101100 q
b1011 r
b1011001110110000000100100 2
b1011001110110000000100100 ]
b110 \
b100101100 '"
b11000 5
b11000 K
b11000 d
1"
#60
0"
#65
11
b11111111111111111111111111111111 /
b11111111111111111111111111111111 a
b11111111111111111111111111111111 o
b101 4
b101 Y
b101 _
b1101 )
b1101 l
b1101 p
b100000 0
b100000 J
b100000 g
0N
1R
b1101 m
b110100000100101 &
b110100000100101 :
b110100000100101 H
b110100000100101 y
b110100000100101 x
b110100000100101 *
b110100000100101 ;
b110100000100101 A
b110100000100101 w
b110100000100101 v
b100101 O
b1101 j
b11111111111111111111111111001001 ,
b11111111111111111111111111001001 b
b11111111111111111111111111001001 q
b1010 r
b1010001110110100000100101 2
b1010001110110100000100101 ]
b111 \
b11100 5
b11100 K
b11100 d
b101100 ("
1"
#70
0"
#75
01
b101010110101010 /
b101010110101010 a
b101010110101010 o
b111 4
b111 Y
b111 _
b101010101010101 6
b101010101010101 9
b101010101010101 D
b101010101010101 `
b101010101010101 G
b0 F
1E
b1110 n
b1110 )
b1110 l
b1110 p
b0 7
b0 =
b0 C
b100100 0
b100100 J
b100100 g
0R
b10 3
b10 8
b10 X
1-
b0 m
b0 ?
b101010101010101 &
b101010101010101 :
b101010101010101 H
b101010101010101 y
b101010101010101 x
b101010101010101 *
b101010101010101 ;
b101010101010101 A
b101010101010101 w
b101010101010101 v
b10101 O
1U
b1110 Q
b1110 k
b1010 j
b0 +
b0 <
b0 B
b0 s
b1110 t
b11111111 ,
b11111111 b
b11111111 q
b111 r
b111000111011100101010101010101 2
b111000111011100101010101010101 ]
b1000 \
b11111111111111111111111111111111 )"
b100000 5
b100000 K
b100000 d
1"
#80
0"
#85
01
b100000000 /
b100000000 a
b100000000 o
0!
b11111111111111111111111111111111 F
b11111111111111111111111111111111 6
b11111111111111111111111111111111 9
b11111111111111111111111111111111 D
b11111111111111111111111111111111 `
0E
1(
b1111 m
b1111 )
b1111 l
b1111 p
b101000 0
b101000 J
b101000 g
b0 G
1S
b11 4
b11 Y
b11 _
b0 3
b0 8
b0 X
0-
b0 n
b111100000100010 &
b111100000100010 :
b111100000100010 H
b111100000100010 y
b111100000100010 x
b111100000100010 *
b111100000100010 ;
b111100000100010 A
b111100000100010 w
b111100000100010 v
b100010 O
0U
b0 Q
b1101 k
b1111 j
b1101 t
b111011010111100000100010 2
b111011010111100000100010 ]
b11111111111111111111111111111111 7
b11111111111111111111111111111111 =
b11111111111111111111111111111111 C
b1001 \
b11111111111111111111111111111111 ?
b100100 5
b100100 K
b100100 d
b101010110101010 *"
b11111111111111111111111111111111 +
b11111111111111111111111111111111 <
b11111111111111111111111111111111 B
b11111111111111111111111111111111 s
1"
#90
0"
#95
0!
0'
1(
b10 4
b10 Y
b10 _
b10000 )
b10000 l
b10000 p
b1100011 /
b1100011 a
b1100011 o
b101100 0
b101100 J
b101100 g
1L
0S
b10000 m
b1000000000100000 &
b1000000000100000 :
b1000000000100000 H
b1000000000100000 y
b1000000000100000 x
b11111111111111111000000000100000 *
b11111111111111111000000000100000 ;
b11111111111111111000000000100000 A
b11111111111111111000000000100000 w
b1000000000100000 v
b100000 O
b10000 j
b1100100 ,
b1100100 b
b1100100 q
b110 r
b110011011000000000100000 2
b110011011000000000100000 ]
b1010 \
b100000000 +"
b101000 5
b101000 K
b101000 d
1"
#100
0"
#105
11
0'
b11111111 6
b11111111 9
b11111111 D
b11111111 `
b11111111111111111111111000000000 /
b11111111111111111111111000000000 a
b11111111111111111111111000000000 o
b11111111 F
b110 4
b110 Y
b110 _
b10001 )
b10001 l
b10001 p
b11111111 7
b11111111 =
b11111111 C
b110000 0
b110000 J
b110000 g
0L
1P
b10001 m
b11111111 ?
b1000100000100111 &
b1000100000100111 :
b1000100000100111 H
b1000100000100111 y
b1000100000100111 x
b11111111111111111000100000100111 *
b11111111111111111000100000100111 ;
b11111111111111111000100000100111 A
b11111111111111111000100000100111 w
b1000100000100111 v
b100111 O
b111 k
b10001 j
b11111111 +
b11111111 <
b11111111 B
b11111111 s
b111 t
b100000000 ,
b100000000 b
b100000000 q
b1111 r
b1111001111000100000100111 2
b1111001111000100000100111 ]
b1011 \
b101100 5
b101100 K
b101100 d
b1100011 ,"
1"
#110
0"
#115
b11111111111111111111111100000000 /
b11111111111111111111111100000000 a
b11111111111111111111111100000000 o
0.
b100000000 6
b100000000 9
b100000000 D
b100000000 `
0!
b100000000 F
1(
b10 4
b10 Y
b10 _
b10010 )
b10010 l
b10010 p
b100000000 7
b100000000 =
b100000000 C
b110100 0
b110100 J
b110100 g
1L
0P
b10010 m
b100000000 ?
b1001000000100000 &
b1001000000100000 :
b1001000000100000 H
b1001000000100000 y
b1001000000100000 x
b11111111111111111001000000100000 *
b11111111111111111001000000100000 ;
b11111111111111111001000000100000 A
b11111111111111111001000000100000 w
b1001000000100000 v
b100000 O
b1111 k
b10010 j
b100000000 +
b100000000 <
b100000000 B
b100000000 s
b1111 t
b11111111111111111111111000000000 ,
b11111111111111111111111000000000 b
b11111111111111111111111000000000 q
b10001 r
b10001011111001000000100000 2
b10001011111001000000100000 ]
b1100 \
b11111111111111111111111000000000 -"
b110000 5
b110000 K
b110000 d
1"
#120
0"
#125
01
b101100 6
b101100 9
b101100 D
b101100 `
b101011000 /
b101011000 a
b101011000 o
b101100 F
b10011 )
b10011 l
b10011 p
b101100 7
b101100 =
b101100 C
b111000 0
b111000 J
b111000 g
0L
1M
b10011 m
b101100 ?
b1001100000100001 &
b1001100000100001 :
b1001100000100001 H
b1001100000100001 y
b1001100000100001 x
b11111111111111111001100000100001 *
b11111111111111111001100000100001 ;
b11111111111111111001100000100001 A
b11111111111111111001100000100001 w
b1001100000100001 v
b100001 O
b1100 k
b10011 j
b101100 +
b101100 <
b101100 B
b101100 s
b1100 t
b100101100 ,
b100101100 b
b100101100 q
b1011 r
b1011011001001100000100001 2
b1011011001001100000100001 ]
b1101 \
b110100 5
b110100 K
b110100 d
b11111111111111111111111100000000 ."
1"
#130
0"
#135
0'
b1010101010101010 G
b1010101010101010 6
b1010101010101010 9
b1010101010101010 D
b1010101010101010 `
b1010101011111111 /
b1010101011111111 a
b1010101011111111 o
1E
b10100 n
b0 F
b101 4
b101 Y
b101 _
b10 3
b10 8
b10 X
1-
b10100 )
b10100 l
b10100 p
b0 7
b0 =
b0 C
b111100 0
b111100 J
b111100 g
0M
b0 m
b0 ?
b1010101010101010 &
b1010101010101010 :
b1010101010101010 H
b1010101010101010 y
b1010101010101010 x
b11111111111111111010101010101010 *
b11111111111111111010101010101010 ;
b11111111111111111010101010101010 A
b11111111111111111010101010101010 w
b1010101010101010 v
b101010 O
1V
b1101 Q
b10100 k
b10101 j
b0 +
b0 <
b0 B
b0 s
b10100 t
b11111111 ,
b11111111 b
b11111111 q
b111 r
b110100111101001010101010101010 2
b110100111101001010101010101010 ]
b1110 \
b101011000 /"
b111000 5
b111000 K
b111000 d
1"
#140
0"
#145
01
b11111110 /
b11111110 a
b11111110 o
b11111111 F
0!
1(
b11111111 @
0E
b11111111 6
b11111111 9
b11111111 D
b11111111 `
b10 4
b10 Y
b10 _
1>
1-
b10101 )
b10101 l
b10101 p
b1000000 0
b1000000 J
b1000000 g
b0 G
b1 3
b1 8
b1 X
b10101 n
b11111111 &
b11111111 :
b11111111 H
b11111111 y
b11111111 x
b11111111 *
b11111111 ;
b11111111 A
b11111111 w
b11111111 v
b111111 O
1Z
0V
b1001 Q
b10101 k
b0 j
b10101 t
b11111111111111111111111111111111 ,
b11111111111111111111111111111111 b
b11111111111111111111111111111111 q
b1101 r
b100101101101010000000011111111 2
b100101101101010000000011111111 ]
b11111111 7
b11111111 =
b11111111 C
b1111 \
b0 ?
b111100 5
b111100 K
b111100 d
b1010101011111111 0"
b0 +
b0 <
b0 B
b0 s
1"
#150
0"
#155
1!
1'
0(
b0 6
b0 9
b0 D
b0 `
0-
b0 /
b0 a
b0 o
b0 F
b0 7
b0 =
b0 C
b0 4
b0 Y
b0 _
0>
b0 )
b0 l
b0 p
b1000100 0
b1000100 J
b1000100 g
b0 @
b0 3
b0 8
b0 X
b0 n
b0 &
b0 :
b0 H
b0 y
b0 x
b0 *
b0 ;
b0 A
b0 w
b0 v
b0 O
0Z
b0 Q
b0 k
b0 t
b0 ,
b0 b
b0 q
b0 r
b0 2
b0 ]
b10000 \
b11111110 1"
b0 +
b0 <
b0 B
b0 s
b1000000 5
b1000000 K
b1000000 d
1"
#160
b100000 %
0"
