Lab3/arraySortCheck_control.vcd
$date
	Tue Feb 11 19:48:41 2020
$end
$version
	Icarus Verilog
$end
$timescale
	1s
$end
$scope module arraySortCheck_control_test $end
$var wire 1 ! zero_length_array $end
$var wire 1 " sorted $end
$var wire 1 # select_index $end
$var wire 1 $ load_input $end
$var wire 1 % load_index $end
$var wire 1 & inversion_found $end
$var wire 1 ' end_of_array $end
$var wire 1 ( done $end
$var reg 5 ) array [4:0] $end
$var reg 1 * clock $end
$var reg 1 + go $end
$var reg 5 , length [4:0] $end
$var reg 1 - reset $end
$var integer 32 . i [31:0] $end
$scope module circuit $end
$var wire 5 / array [4:0] $end
$var wire 1 * clk $end
$var wire 1 ' end_of_array $end
$var wire 1 & inversion_found $end
$var wire 5 0 length [4:0] $end
$var wire 1 - reset $end
$var wire 1 ! zero_length_array $end
$var wire 1 1 zero_length_case $end
$var wire 1 # select_index $end
$var wire 1 $ load_input $end
$var wire 1 % load_index $end
$var wire 5 2 length_minus_1 [4:0] $end
$var wire 32 3 index_alu_in [31:0] $end
$var wire 32 4 b [31:0] $end
$var wire 32 5 array_plus_index_plus_1 [31:0] $end
$var wire 32 6 array_plus_index [31:0] $end
$var wire 32 7 array_alu_in [31:0] $end
$var wire 1 8 a_ne_b_1 $end
$var wire 1 9 a_lt_b_2 $end
$var wire 1 : a_lt_b_1 $end
$var wire 32 ; a [31:0] $end
$var reg 5 < array_reg [4:0] $end
$var reg 5 = index_reg [4:0] $end
$var reg 5 > length_reg [4:0] $end
$scope module compareElements $end
$var wire 1 8 ne $end
$var wire 1 : lt $end
$var wire 32 ? B [31:0] $end
$var wire 32 @ A [31:0] $end
$upscope $end
$scope module comparelength $end
$var wire 5 A A [4:0] $end
$var wire 5 B B [4:0] $end
$var wire 1 C ne $end
$var wire 1 9 lt $end
$upscope $end
$scope module comparelengthzero $end
$var wire 5 D A [4:0] $end
$var wire 5 E B [4:0] $end
$var wire 1 1 ne $end
$var wire 1 F lt $end
$upscope $end
$scope module rf $end
$var wire 1 * clock $end
$var wire 32 G internal_rdData [31:0] $end
$var wire 32 H rdData [31:0] $end
$var wire 5 I rdNum [4:0] $end
$var wire 1 J rdWriteEnable $end
$var wire 1 - reset $end
$var wire 32 K rsData [31:0] $end
$var wire 5 L rsNum [4:0] $end
$var wire 32 M rtData [31:0] $end
$var wire 5 N rtNum [4:0] $end
$var integer 32 O i [31:0] $end
$upscope $end
$upscope $end
$scope module control $end
$var wire 1 * clock $end
$var wire 1 ( done $end
$var wire 1 ' end_of_array $end
$var wire 1 P garbage_next $end
$var wire 1 + go $end
$var wire 1 Q index_next $end
$var wire 1 & inversion_found $end
$var wire 1 R link_next $end
$var wire 1 % load_index $end
$var wire 1 $ load_input $end
$var wire 1 S res_1_next $end
$var wire 1 T res_2_next $end
$var wire 1 - reset $end
$var wire 1 U review_next $end
$var wire 1 # select_index $end
$var wire 1 " sorted $end
$var wire 1 V start_next $end
$var wire 1 ! zero_length_array $end
$var wire 1 W start $end
$var wire 1 X review $end
$var wire 1 Y res_2 $end
$var wire 1 Z res_1 $end
$var wire 1 [ link $end
$var wire 1 \ index $end
$var wire 1 ] garbage $end
$scope module ogarbage $end
$var wire 1 * clk $end
$var wire 1 P d $end
$var wire 1 ^ enable $end
$var wire 1 _ reset $end
$var reg 1 ] q $end
$upscope $end
$scope module oindex $end
$var wire 1 * clk $end
$var wire 1 Q d $end
$var wire 1 ` enable $end
$var wire 1 a reset $end
$var reg 1 \ q $end
$upscope $end
$scope module olink $end
$var wire 1 * clk $end
$var wire 1 R d $end
$var wire 1 b enable $end
$var wire 1 c reset $end
$var reg 1 [ q $end
$upscope $end
$scope module ores_1 $end
$var wire 1 * clk $end
$var wire 1 S d $end
$var wire 1 d enable $end
$var wire 1 e reset $end
$var reg 1 Z q $end
$upscope $end
$scope module ores_2 $end
$var wire 1 * clk $end
$var wire 1 T d $end
$var wire 1 f enable $end
$var wire 1 g reset $end
$var reg 1 Y q $end
$upscope $end
$scope module oreview $end
$var wire 1 * clk $end
$var wire 1 U d $end
$var wire 1 h enable $end
$var wire 1 i reset $end
$var reg 1 X q $end
$upscope $end
$scope module ostart $end
$var wire 1 * clk $end
$var wire 1 V d $end
$var wire 1 j enable $end
$var wire 1 k reset $end
$var reg 1 W q $end
$upscope $end
$upscope $end
$upscope $end
$enddefinitions $end
#0
$dumpvars
0k
1j
0i
1h
0g
1f
0e
1d
0c
1b
0a
1`
0_
1^
x]
x\
x[
xZ
xY
xX
xW
0V
0U
0T
0S
0R
0Q
1P
b100000 O
bx N
bx M
bx L
bx K
zJ
bz I
bz H
bx G
xF
b0 E
bx D
xC
bx B
bx A
bx @
bx ?
bx >
bx =
bx <
bx ;
x:
x9
x8
b0xxxxx 7
bx 6
bx 5
bx 4
b0xxxxx 3
bx 2
x1
bx 0
bx /
bx .
1-
bx ,
0+
0*
bx )
x(
x'
x&
x%
x$
x#
x"
x!
$end
#1
0'
b1 N
b0 L
1!
0%
0(
19
1C
b1 5
b0 6
b0 3
b0 =
b0 A
b11111 2
b11111 B
0F
01
b0 >
b0 D
b0 7
b0 <
1]
0$
0W
0[
0X
0#
0\
0"
0Z
0Y
1*
bz G
#2
0&
1P
08
0:
b0 4
b0 ?
b0 M
b0 ;
b0 @
b0 K
0*
b100000 .
0-
#3
18
1:
b1 4
b1 ?
b1 M
1*
#4
1V
0P
0*
1+
b101 ,
b101 0
b1011 )
b1011 /
#5
1%
0]
1$
1W
1*
#6
0*
#7
0!
b1100 N
b1011 L
b100 2
b100 B
11
b101 >
b101 D
b1100 5
b1011 6
b1011 7
b1011 <
1*
#8
b1100 4
b1100 ?
b1100 M
1:
b1011 ;
b1011 @
b1011 K
0*
#9
1*
#10
0*
#11
1*
#12
0*
#13
1*
#14
0V
1R
0*
0+
#15
1U
0R
0%
1[
0$
0W
1*
#16
0*
#17
0U
1Q
0[
1X
1*
#18
0*
#19
0Q
1U
1%
1#
1\
0X
1*
#20
0*
#21
1Q
0U
b1101 N
b1100 L
0%
b1101 5
b1100 6
b1 3
b1 =
b1 A
1X
0#
0\
1*
#22
b1101 4
b1101 ?
b1101 M
18
1:
b1100 ;
b1100 @
b1100 K
0*
#23
0Q
1U
1%
1#
1\
0X
1*
#24
0*
#25
1Q
0U
b1110 N
b1101 L
0%
b1110 5
b1101 6
b10 3
b10 =
b10 A
1X
0#
0\
1*
#26
b1110 4
b1110 ?
b1110 M
18
1:
b1101 ;
b1101 @
b1101 K
0*
#27
0Q
1U
1%
1#
1\
0X
1*
#28
0*
#29
1Q
0U
b1111 N
b1110 L
0%
b1111 5
b1110 6
b11 3
b11 =
b11 A
1X
0#
0\
1*
#30
b1111 4
b1111 ?
b1111 M
18
1:
b1110 ;
b1110 @
b1110 K
0*
#31
0Q
1U
1%
1#
1\
0X
1*
#32
0*
#33
1S
0U
1'
b10000 N
b1111 L
0%
09
0C
b10000 5
b1111 6
b100 3
b100 =
b100 A
1X
0#
0\
1*
#34
b10000 4
b10000 ?
b10000 M
18
1:
b1111 ;
b1111 @
b1111 K
0*
#35
1(
1"
1Z
0X
1*
#36
1V
0S
0*
1+
b10 )
b10 /
#37
1%
0(
1$
1W
0"
0Z
1*
#38
0*
#39
0'
b11 N
b10 L
19
1C
b0 3
b0 =
b0 A
b11 5
b10 6
b10 7
b10 <
1*
#40
b10 4
b10 ?
b10 M
b1 ;
b1 @
b1 K
0*
#41
1*
#42
0*
#43
1*
#44
0*
#45
1*
#46
0V
1R
0*
0+
#47
1U
0R
0%
1[
0$
0W
1*
#48
0*
#49
0U
1Q
0[
1X
1*
#50
0*
#51
0Q
1U
1%
1#
1\
0X
1*
#52
0*
#53
1Q
0U
b100 N
b11 L
0%
b100 5
b11 6
b1 3
b1 =
b1 A
1X
0#
0\
1*
#54
b11 4
b11 ?
b11 M
18
1:
b10 ;
b10 @
b10 K
0*
#55
0Q
1U
1%
1#
1\
0X
1*
#56
0*
#57
1Q
0U
b101 N
b100 L
0%
b101 5
b100 6
b10 3
b10 =
b10 A
1X
0#
0\
1*
#58
0Q
1T
1&
b10 4
b10 ?
b10 M
18
0:
b11 ;
b11 @
b11 K
0*
#59
1(
1Y
0X
1*
#60
0*
#61
1*
#62
0*
#63
1*
#64
0*
#65
1*
#66
0*
#67
1*
#68
1V
0T
0*
1+
b11 ,
b11 0
b111 )
b111 /
#69
1%
0(
1$
1W
0Y
1*
#70
0*
#71
b1000 N
b111 L
b0 3
b0 =
b0 A
19
1C
b10 2
b10 B
b11 >
b11 D
b1000 5
b111 6
b111 7
b111 <
1*
#72
0&
1:
b1000 4
b1000 ?
b1000 M
b111 ;
b111 @
b111 K
0*
#73
1*
#74
0*
#75
1*
#76
0*
#77
1*
#78
0V
1R
0*
0+
#79
1U
0R
0%
1[
0$
0W
1*
#80
0*
#81
0U
1Q
0[
1X
1*
#82
0*
#83
0Q
1U
1%
1#
1\
0X
1*
#84
0*
#85
1Q
0U
b1001 N
b1000 L
0%
b1001 5
b1000 6
b1 3
b1 =
b1 A
1X
0#
0\
1*
#86
b1001 4
b1001 ?
b1001 M
18
1:
b1000 ;
b1000 @
b1000 K
0*
#87
0Q
1U
1%
1#
1\
0X
1*
#88
0*
#89
1S
0U
1'
b1010 N
b1001 L
0%
09
0C
b1010 5
b1001 6
b10 3
b10 =
b10 A
1X
0#
0\
1*
#90
1&
b110 4
b110 ?
b110 M
18
0:
b1001 ;
b1001 @
b1001 K
0*
#91
1(
1"
1Z
0X
1*
#92
0*
#93
1*
#94
0*
#95
1*
#96
0*
#97
1*
#98
0*
#99
1*
#100
1V
0S
0*
1+
b0 ,
b0 0
b11110 )
b11110 /
#101
1%
0(
1$
1W
0"
0Z
1*
#102
0*
#103
0'
1!
b11111 N
b11110 L
b0 3
b0 =
b0 A
19
1C
b11111 2
b11111 B
01
b0 >
b0 D
b11111 5
b11110 6
b11110 7
b11110 <
1*
#104
0&
1:
b11111 4
b11111 ?
b11111 M
b11110 ;
b11110 @
b11110 K
0*
#105
1*
#106
0*
#107
1*
#108
0*
#109
1*
#110
0V
1R
0*
0+
#111
1S
0R
0%
1[
0$
0W
1*
#112
0*
#113
1(
0[
1"
1Z
1*
#114
0*
#115
1*
#116
0*
#117
1*
#118
0*
#119
1*
#120
0*
#121
1*
#122
0*
#123
1*
#124
0*
#125
1*
#126
0*
#127
1*
#128
0*
#129
1*
#130
0S
b100000 O
1P
0*
1-
#131
0(
b1 N
b0 L
0"
0Z
1]
b1 5
b0 6
b0 7
b0 <
08
0:
b0 4
b0 ?
b0 M
b0 ;
b0 @
b0 K
1*
#132
0*
1+
b1101 ,
b1101 0
b10001 )
b10001 /
#133
1*
#134
0*
#135
1*
#136
0*
#137
1*
#138
0*
#139
1*
#140
0*
#141
1*
#142
0*
0+
#143
1*
#144
0*
#145
1*
#146
0*
#147
1*
#148
0*
#149
1*
#150
0*
#151
1*
#152
0*
#153
1*
#154
0*
#155
1*
#156
0*
#157
1*
#158
0*
#159
1*
#160
0*
#161
1*
#162
1P
0*
0-
#163
1*
#164
1V
0P
0*
1+
b100 ,
b100 0
b10 )
b10 /
#165
1%
0]
1$
1W
1*
#166
0*
#167
0!
b11 N
b10 L
b11 2
b11 B
11
b100 >
b100 D
b11 5
b10 6
b10 7
b10 <
1*
#168
0*
#169
1*
#170
0*
#171
1*
#172
0*
#173
1*
#174
0V
b100000 O
1P
0*
1-
0+
#175
0%
1!
b1 N
b0 L
0$
0W
1]
b11111 2
b11111 B
01
b0 >
b0 D
b1 5
b0 6
b0 7
b0 <
1*
#176
0*
#177
1*
#178
0*
#179
1*
#180
0*
#181
1*
#182
0*
#183
1*
#184
0*
#185
1*
#186
0*
#187
1*
#188
0*
#189
1*
#190
0*
#191
1*
#192
0*
#193
1*
#194
1P
0*
0-
#195
1*
#196
1V
0P
0*
1+
#197
1%
0]
1$
1W
1*
#198
0*
#199
0!
b11 N
b10 L
b11 2
b11 B
11
b100 >
b100 D
b11 5
b10 6
b10 7
b10 <
1*
#200
0*
#201
1*
#202
0*
#203
1*
#204
0*
#205
1*
#206
0V
1R
0*
0+
#207
1U
0R
0%
1[
0$
0W
1*
#208
0*
#209
0U
1Q
0[
1X
1*
#210
0*
#211
0Q
1U
1%
1#
1\
0X
1*
#212
0*
#213
1Q
0U
b100 N
b11 L
0%
b100 5
b11 6
b1 3
b1 =
b1 A
1X
0#
0\
1*
#214
0*
#215
0Q
1U
1%
1#
1\
0X
1*
#216
0*
#217
1Q
0U
b101 N
b100 L
0%
b101 5
b100 6
b10 3
b10 =
b10 A
1X
0#
0\
0&
1:
b111 4
b111 ?
b111 M
18
b10 ;
b10 @
b10 K
1*
#218
b1001 4
b1001 ?
b1001 M
18
1:
b111 ;
b111 @
b111 K
0*
1+
b101 ,
b101 0
#219
0Q
1U
1%
1#
1\
0X
1*
#220
0*
#221
1S
0U
1'
b110 N
b101 L
0%
09
0C
b110 5
b101 6
b11 3
b11 =
b11 A
1X
0#
0\
1*
#222
b10000 4
b10000 ?
b10000 M
18
1:
b1001 ;
b1001 @
b1001 K
0*
#223
1V
0S
1(
1"
1Z
0X
1*
#224
0*
#225
1%
0(
1$
1W
0"
0Z
1*
#226
0*
#227
b11 N
b10 L
0'
b11 5
b10 6
b0 3
b0 =
b0 A
19
1C
b100 2
b100 B
b101 >
b101 D
1*
#228
0V
1R
b10 4
b10 ?
b10 M
b1 ;
b1 @
b1 K
0*
0+
#229
1U
0R
0%
0$
0W
1[
1*
#230
0*
#231
1Q
0U
1X
0[
1*
#232
0*
#233
0Q
1U
1%
0X
1#
1\
1*
#234
0*
#235
1Q
0U
0%
b100 N
b11 L
0#
0\
1X
b100 5
b11 6
b1 3
b1 =
b1 A
1*
#236
b111 4
b111 ?
b111 M
18
1:
b10 ;
b10 @
b10 K
0*
#237
0Q
1U
1%
0X
1#
1\
1*
#238
0*
#239
1Q
0U
0%
b101 N
b100 L
0#
0\
1X
b101 5
b100 6
b10 3
b10 =
b10 A
1*
#240
b1001 4
b1001 ?
b1001 M
18
1:
b111 ;
b111 @
b111 K
0*
#241
0Q
1U
1%
0X
1#
1\
1*
#242
0*
#243
1Q
0U
0%
b110 N
b101 L
0#
0\
1X
b110 5
b101 6
b11 3
b11 =
b11 A
1*
#244
b10000 4
b10000 ?
b10000 M
18
1:
b1001 ;
b1001 @
b1001 K
0*
#245
0Q
1U
1%
0X
1#
1\
1*
#246
0*
#247
1S
0U
0%
1'
b111 N
b110 L
0#
0\
1X
09
0C
b111 5
b110 6
b100 3
b100 =
b100 A
1*
#248
1&
b0 4
b0 ?
b0 M
18
0:
b10000 ;
b10000 @
b10000 K
0*
#249
1(
0X
1"
1Z
1*
